# Blender MTL File: 'minion.blend'
# Material Count: 9

newmtl Material.004
Ns 96.078431
Ka 0.000000 0.000000 0.000000
Kd 0.110745 0.110745 0.110745
Ks 0.500000 0.500000 0.500000
Ni 1.000000
d 1.000000
illum 2

newmtl Material.007
Ns 96.078431
Ka 0.000000 0.000000 0.000000
Kd 0.640000 0.640000 0.640000
Ks 0.500000 0.500000 0.500000
Ni 1.000000
d 1.000000
illum 2

newmtl Material.008
Ns 96.078431
Ka 0.000000 0.000000 0.000000
Kd 0.640000 0.640000 0.640000
Ks 0.500000 0.500000 0.500000
Ni 1.000000
d 1.000000
illum 2

newmtl Material.009
Ns 96.078431
Ka 0.000000 0.000000 0.000000
Kd 0.122341 0.072673 0.046244
Ks 0.500000 0.500000 0.500000
Ni 1.000000
d 1.000000
illum 2

newmtl agız
Ns 96.078431
Ka 0.000000 0.000000 0.000000
Kd 0.013446 0.014114 0.001943
Ks 0.500000 0.500000 0.500000
Ni 1.000000
d 1.000000
illum 2

newmtl dıs
Ns 96.078431
Ka 0.000000 0.000000 0.000000
Kd 0.024571 0.005999 0.003220
Ks 0.500000 0.500000 0.500000
Ni 1.000000
d 1.000000
illum 2

newmtl jeans
Ns 96.078431
Ka 0.000000 0.000000 0.000000
Kd 0.000000 0.065826 0.639282
Ks 0.500000 0.500000 0.500000
Ni 1.000000
d 1.000000
illum 2

newmtl whitedis
Ns 96.078431
Ka 0.000000 0.000000 0.000000
Kd 0.640000 0.640000 0.640000
Ks 0.500000 0.500000 0.500000
Ni 1.000000
d 1.000000
illum 2

newmtl yellow
Ns 96.078431
Ka 0.000000 0.000000 0.000000
Kd 0.664616 0.456900 0.000000
Ks 0.500000 0.500000 0.500000
Ni 1.000000
d 1.000000
illum 2
